Extracting Highlighting as Data from Excel Spreadsheets with {tidyxl}
…
Extracting Cell Data

We would like to identify and extract the cells highlighted in yellow. In this case, these are the cells in row 10 (row 11 in Excel, counting the header row), for the variables Adult and …7. But this is not obvious from the tibble. So we will have to dig deeper into the xlsx file with the help of {tidyxl}. Let’s use the xlsx_cells() function to get more information on each cell, and store this in the object, x.

x <- xlsx_cells(titanic)
x

# A tibble: 60 x 21
   sheet address   row   col is_blank data_type error logical numeric
   <chr> <chr>   <int> <int> <lgl>    <chr>     <chr> <lgl>     <dbl>
 1 Shee… C1          1     3 FALSE    character <NA>  NA           NA
 2 Shee… D1          1     4 FALSE    character <NA>  NA           NA
 3 Shee… E1          1     5 TRUE     blank     <NA>  NA           NA
 4 Shee… F1          1     6 FALSE    character <NA>  NA           NA
 5 Shee… G1          1     7 TRUE     blank     <NA>  NA           NA
 6 Shee… C2          2     3 FALSE    character <NA>  NA           NA
 7 Shee… D2          2     4 FALSE    character <NA>  NA           NA
 8 Shee… E2          2     5 FALSE    character <NA>  NA           NA
 9 Shee… F2          2     6 FALSE    character <NA>  NA           NA
10 Shee… G2          2     7 FALSE    character <NA>  NA           NA
# … with 50 more rows, and 12 more variables: date <dttm>,
#   character <chr>, character_formatted <list>, formula <chr>,
#   is_array <lgl>, formula_ref <chr>, formula_group <int>,
#   comment <chr>, height <dbl>, width <dbl>, style_format <chr>,
#   local_format_id <int>
…
From this tibble, we can’t see which rows were coded as test (red) vs. control (green). Let’s follow the same approach - first we will extract cell data.

Extracting Cell Data

pilot_cells <- xlsx_cells(pilot_path)
pilot_cells

# A tibble: 84 x 21
   sheet address   row   col is_blank data_type error logical numeric
   <chr> <chr>   <int> <int> <lgl>    <chr>     <chr> <lgl>     <dbl>
 1 Shee… A1          1     1 FALSE    character <NA>  NA           NA
 2 Shee… B1          1     2 FALSE    character <NA>  NA           NA
 3 Shee… C1          1     3 FALSE    character <NA>  NA           NA
 4 Shee… D1          1     4 FALSE    character <NA>  NA           NA
 5 Shee… E1          1     5 FALSE    character <NA>  NA           NA
 6 Shee… F1          1     6 FALSE    character <NA>  NA           NA
 7 Shee… G1          1     7 FALSE    character <NA>  NA           NA
 8 Shee… A2          2     1 FALSE    numeric   <NA>  NA            1
 9 Shee… B2          2     2 FALSE    numeric   <NA>  NA          147
10 Shee… C2          2     3 FALSE    numeric   <NA>  NA          129
# … with 74 more rows, and 12 more variables: date <dttm>,
#   character <chr>, character_formatted <list>, formula <chr>,
#   is_array <lgl>, formula_ref <chr>, formula_group <int>,
#   comment <chr>, height <dbl>, width <dbl>, style_format <chr>,
#   local_format_id <int>
…
